
// bricks information

s edif_nivel2.gif 8


// -----------
                             
                     333
                     222                   
                   3322233           
            333333 2222222 333333 
            222222 2222222 222222            3333
       3333 222222 2222222 222222 3333     33222233     3333
       2222 222222 2222222 222222 2222     22222222     222233                               
       2222 222222 2222222 222222 2222     22222222     222222                               
       2112 221122 2211122 221122 2112     22211222     221222                               
00000000000000000000000000000000000000000000000000000000000000000
00000000000000000000000000000000000000000000000000000000000000000
// -----------
