
// bricks information

s edif_nivel3.gif 8


// -----------
                             

                           3333333
                           2222222                    333
             333333 333333 2222222                    222 
             222222 222222 2222222                    222
       33333 222222 222222 2222222  333333         333222333
   333 22222 222222 222222 2222222  222222      333222222222333
   222 22222 222222 222222 2222222  222222      222222222222222
   212 22122 221122 222122 2221222  221122      222222111222222
00000000000000000000000000000000000000000000000000000000000000000
00000000000000000000000000000000000000000000000000000000000000000
// -----------
