
// bricks information

s edif_nivel4.gif 8


// -----------
                             

                                 3333
                                 2222
                           33333 2222 33333 
                           22222 2222 22222 
   33333    33333 33333  3322222 2222 2222233   333     3333
   22222    22222 22222  2222222 2222 2222222   222    322223
   22222    22222 22222  2222222 2222 2222222   222    222222
   22122    22122 22122  2211122 2112 2211122   212    222122
00000000000000000000000000000000000000000000000000000000000000000
00000000000000000000000000000000000000000000000000000000000000000
// -----------
