
// bricks information

s edif_nivel3.gif 8


// -----------
                             

                                 3333333
                                 2222222
                         3333333 2222222 333333 
                         2277722 2222222 222222 
         3333333 3333333 2222222 2222222 222222          333333        3333          3333
         2222222 2222222 2222222 2222222 222222          222222        1111       33322223333                            333333333333
         2222222 2222222 2222222 2222222 222222          222222        1111       22222222222                            222222222222
         2221222 2221222 2221222 2221222 222122          221122        1111       22222122222                            222122222212
00000000000000000000000000000000000000000000000000000000000000000000000000000000000000000000000000000000000000000000000000000000000000000000000000000
00000000000000000000000000000000000000000000000000000000000000000000000000000000000000000000000000000000000000000000000000000000000000000000000000000
// -----------
